<?xml version="1.0" encoding="utf-8"?>
<!-- Generator: Adobe Illustrator 22.1.0, SVG Export Plug-In . SVG Version: 6.00 Build 0)  -->
<svg width="181.9px" height="177.7px" version="1.1" id="yonder-y" xmlns="http://www.w3.org/2000/svg" xmlns:xlink="http://www.w3.org/1999/xlink" x="0px" y="0px"
	 viewBox="0 0 181.9 177.7" style="enable-background:new 0 0 181.9 177.7;" xml:space="preserve">
<style type="text/css">
	.st0{fill:#FFFFFF;}
</style>
<g>
	<polygon id="LEFT" class="st0" points="7.1,0 36.4,0 84.4,78 84.4,177.7 55.1,149 55.4,95.3 0.1,5.7 	"/>
	<polygon id="RIGHT" class="st0" points="174.9,0 145.6,0 97.6,78 97.6,177.7 126.9,149 126.6,95.3 181.9,5.7 	"/>
	<polygon id="TRIANGLE" class="st0" points="65.6,26.5 116.3,26.5 91.1,68.5 	"/>
</g>
</svg>
